San Francisco 3-Bedroom Housing Price Forecasting
…
This plot displays scatterplots of San Francisco 3-Bedroom Housing Price Time Series, where the horizontal axis shows lagged values of the time series. (e.g y_t vs y_(t-1), y_t vs y_(t-2)..)
 Here the colours indicate the month of the variable on the vertical axis. The positive relationships in all plots reflect the strong increasing trend in the data.

Split a time series into several components, namely a trend-cycle component, a seasonal component, and a remainder component, each representing an underlying pattern category.

dcmp <- sf_3bed_timeseries %>%
  model(stl = STL(housing_price))
components(dcmp)

## # A dable: 306 x 7 [1M]
## # Key:     .model [1]
## # :        housing_price = trend + season_year + remainder
##    .model    Month housing_price   trend season_year remainder season_adjust
##    <chr>     <mth>         <dbl>   <dbl>       <dbl>     <dbl>         <dbl>
##  1 stl    1996 Jan        328776 324227.       -89.4     4639.       328865.
##  2 stl    1996 Feb        327698 324680.      -132.      3150.       327830.
##  3 stl    1996 Mar        326951 325133.      -122.      1939.       327073.
##  4 stl    1996 Apr        325638 325587.      -202.       253.       325840.
##  5 stl    1996 May        324615 326188.      -405.     -1168.       325020.
##  6 stl    1996 Jun        324038 326790.      -429.     -2323.       324467.
##  7 stl    1996 Jul        323573 327391.      -313.     -3505.       323886.
##  8 stl    1996 Aug        324088 328095.       -84.3    -3922.       324172.
##  9 stl    1996 Sep        324904 328798.       165.     -4059.       324739.
## 10 stl    1996 Oct        326422 329501.       477.     -3557.       325945.
## # ... with 296 more rows
…
